test_run_dir/DecoupledGcd_should_pass/DecoupledGcdProp1.bmc.vcd
$date
2022-06-24T06:11+0000
$end
$version
0.2
$end
$comment

$end
$timescale 1ns  $end
$scope module DecoupledGcdProp1 $end
 $var wire 64 ! Step $end
 $var wire 1 " reset $end
 $var wire 1 # input_valid $end
 $var wire 4 $ input_bits_value1 $end
 $var wire 4 % input_bits_value2 $end
 $var wire 1 & output_ready $end
 $var wire 4 ' _GEN_4_invalid $end
 $var wire 4 ( _GEN_5_invalid $end
 $var wire 4 ) _GEN_6_invalid $end
 $var wire 4 * _GEN_17_invalid $end
 $var wire 4 + _GEN_18_invalid $end
 $var wire 4 , _GEN_19_invalid $end
 $var wire 4 - xInitial $end
 $var wire 4 . yInitial $end
 $var wire 4 / x $end
 $var wire 4 0 y $end
 $var wire 1 1 busy $end
 $var wire 1 2 resultValid $end
 $var wire 1 3 loop $end
$upscope $end
$enddefinitions $end
#0
b0000000000000000000000000000000000000000000000000000000000000000 !
03
b0111 -
b0011 0
b1111 %
1"
11
b1110 .
0&
1#
02
b1111 $
b0000 /
#1
b0000000000000000000000000000000000000000000000000000000000000001 !
0"
01
b0001 $
#2
b0000000000000000000000000000000000000000000000000000000000000010 !
b1111 0
b0001 -
11
b1111 .
b1111 $
b0001 /
#3
b0000000000000000000000000000000000000000000000000000000000000011 !
b1110 0
#4
b0000000000000000000000000000000000000000000000000000000000000100 !
b1101 0
b0000 %
0#
b0000 $
#5
b0000000000000000000000000000000000000000000000000000000000000101 !
b1100 0
#6
b0000000000000000000000000000000000000000000000000000000000000110 !
b1011 0
1#
b1111 $
#7
b0000000000000000000000000000000000000000000000000000000000000111 !
b1010 0
b1111 %
#8
b0000000000000000000000000000000000000000000000000000000000001000 !
b1001 0
b0000 %
0#
b0000 $
#9
b0000000000000000000000000000000000000000000000000000000000001001 !
b1000 0
b1111 %
1#
b1111 $
#10
b0000000000000000000000000000000000000000000000000000000000001010 !
b0111 0
b0000 %
0#
b0000 $
#11
b0000000000000000000000000000000000000000000000000000000000001011 !
b0110 0
#12
b0000000000000000000000000000000000000000000000000000000000001100 !
b0101 0
#13
b0000000000000000000000000000000000000000000000000000000000001101 !
b0100 0
b1111 %
1#
b1111 $
#14
b0000000000000000000000000000000000000000000000000000000000001110 !
b0011 0
#15
b0000000000000000000000000000000000000000000000000000000000001111 !
b0010 0
b0000 %
0#
b0000 $
#16
b0000000000000000000000000000000000000000000000000000000000010000 !
b0001 0
#17
b0000000000000000000000000000000000000000000000000000000000010001 !
b0000 /
#18
b0000000000000000000000000000000000000000000000000000000000010010 !
b0101 %
01
12
b1000 $
#19
b0000000000000000000000000000000000000000000000000000000000010011 !
13
b0000 %
b0000 $
#20
b0000000000000000000000000000000000000000000000000000000000010100 !
#21
b0000000000000000000000000000000000000000000000000000000000010101 !
